Option; Values; Description
``shape``;``<shapeName>``;The default shape for current state, for full list of possible options, see :ref:`JSON State Shape values`
``color``;hex color;The color for current state, this will override the ``default`` color set in :ref:`Workflow Configuration` and in Global :ref:`State Colors`
``forceColor``;``true`` or ``false``;When you set the ``color`` value, it twill overrides all the values set for ``default``, ``previous``, ``current``, ``next`` and ``selectable`` set in in :ref:`Workflow Configuration` and in Global :ref:`State Colors`, if you want to override only the ``default`` state color, then set this option to ``false``
``fill``;``true`` or ``false``;Whether to use colors to fill the shape or for stroke color
``light``;``true`` or ``false``;When ``fill`` option is set to ``false``, whether to use light color to fill the shape or for text
``style``;"- ``b``
- ``i``
- ``bi``";"The font style for current workflow's states text, you can use ``b`` for **bold**, ``i`` for **italic** or ``bi`` for **bold italic**"
``size``;``number``;The size in pixels for current state text
``stroke``;``number``;The width in pixels for shape stroke, ``0`` for no stroke
``hidden``;``true`` or ``false``;Hides the state from the graph, all possible transitions which goes to and from the hidden state will be merged and drawn in the graph, see :ref:`Example of a hidden state`. 